…
    penguins_tidy <- penguins %>% 
      na.omit() %>% 
      select(species, flipper_length_mm) %>% 
      mutate(species = factor(species)) %>% 
      reduce(
        levels(.$species)[-1],
        ~ mutate(.x, !!paste0("species", .y) := as.integer(species == .y)),
        .init = .
      )

    penguins_tidy

    ## # A tibble: 333 x 4
    ##    species flipper_length_mm speciesChinstrap speciesGentoo
    ##    <fct>               <int>            <int>         <int>
    ##  1 Adelie                181                0             0
    ##  2 Adelie                186                0             0
    ##  3 Adelie                195                0             0
    ##  4 Adelie                193                0             0
    ##  5 Adelie                190                0             0
    ##  6 Adelie                181                0             0
    ##  7 Adelie                195                0             0
    ##  8 Adelie                182                0             0
    ##  9 Adelie                191                0             0
    ## 10 Adelie                198                0             0
    ## # ... with 323 more rows
…
